{
    "annotations": {
      "list": [
        {
          "builtIn": 1,
          "datasource": {
            "type": "datasource",
            "uid": "grafana"
          },
          "enable": true,
          "hide": true,
          "iconColor": "rgba(0, 211, 255, 1)",
          "name": "Annotations & Alerts",
          "target": {
            "limit": 100,
            "matchAny": false,
            "tags": [],
            "type": "dashboard"
          },
          "type": "dashboard"
        }
      ]
    },
    "editable": true,
    "fiscalYearStartMonth": 0,
    "graphTooltip": 0,
    "id": 17,
    "links": [
      {
        "asDropdown": false,
        "icon": "external link",
        "includeVars": false,
        "keepTime": false,
        "tags": [],
        "targetBlank": false,
        "title": "Artur Kryukov",
        "tooltip": "",
        "type": "link",
        "url": "https://www.kryukov.biz"
      }
    ],
    "liveNow": false,
    "panels": [
      {
        "datasource": {
          "type": "prometheus",
          "uid": "PC7A11E9A55DE2B14"
        },
        "gridPos": {
          "h": 11,
          "w": 10,
          "x": 0,
          "y": 0
        },
        "id": 2,
        "options": {
          "code": {
            "language": "plaintext",
            "showLineNumbers": false,
            "showMiniMap": false
          },
          "content": "---\n* [Список серверов](/d/art-nodes)\n  * [Подробная информация о сервере](/d/art-node-exporter)\n* [Кластер k8s](/d/art-k8s)\n  * [Список подов кластера](/d/art-k8s-list-of-pods)\n  * [Подробная информация по подам](/d/art-k8s-pod-info)\n* [Victoriametrics](/d/art-victoria)\n* [Ingress nginx controller](/d/art-ingress-nginx)\n* GitLab CI\n  * [GitLab CI pipelines](/d/gitlab_ci_pipelines)\n  * [GitLab CI jobs](/d/gitlab_ci_jobs)\n  * [GitLab CI environments & deployments](/d/gitlab_ci_environment_deployments)\n           ",
          "mode": "markdown"
        },
        "pluginVersion": "10.3.3",
        "targets": [
          {
            "datasource": {
              "type": "prometheus",
              "uid": "PC7A11E9A55DE2B14"
            },
            "queryType": "randomWalk",
            "refId": "A"
          }
        ],
        "type": "text"
      },
      {
        "datasource": {
          "type": "prometheus",
          "uid": "${ds}"
        },
        "fieldConfig": {
          "defaults": {
            "color": {
              "mode": "thresholds"
            },
            "mappings": [
              {
                "options": {
                  "match": "null",
                  "result": {
                    "text": "N/A"
                  }
                },
                "type": "special"
              }
            ],
            "thresholds": {
              "mode": "absolute",
              "steps": [
                {
                  "color": "green",
                  "value": null
                },
                {
                  "color": "red",
                  "value": 5
                }
              ]
            },
            "unit": "none",
            "unitScale": true
          },
          "overrides": []
        },
        "gridPos": {
          "h": 3,
          "w": 5,
          "x": 10,
          "y": 0
        },
        "id": 16,
        "links": [],
        "maxDataPoints": 100,
        "options": {
          "colorMode": "value",
          "graphMode": "area",
          "justifyMode": "auto",
          "orientation": "horizontal",
          "reduceOptions": {
            "calcs": [
              "lastNotNull"
            ],
            "fields": "",
            "values": false
          },
          "showPercentChange": false,
          "text": {},
          "textMode": "auto",
          "wideLayout": true
        },
        "pluginVersion": "10.3.3",
        "targets": [
          {
            "datasource": {
              "type": "prometheus",
              "uid": "${ds}"
            },
            "exemplar": true,
            "expr": "sum(delta(kube_pod_container_status_restarts_total[30m]))",
            "format": "time_series",
            "interval": "",
            "intervalFactor": 1,
            "legendFormat": "",
            "refId": "A"
          }
        ],
        "title": "Containers Restarts (Last 30 min)",
        "type": "stat"
      },
      {
        "datasource": {
          "type": "prometheus",
          "uid": "${ds}"
        },
        "fieldConfig": {
          "defaults": {
            "color": {
              "mode": "thresholds"
            },
            "mappings": [
              {
                "options": {
                  "match": "null",
                  "result": {
                    "text": "N/A"
                  }
                },
                "type": "special"
              }
            ],
            "thresholds": {
              "mode": "absolute",
              "steps": [
                {
                  "color": "green",
                  "value": null
                },
                {
                  "color": "blue",
                  "value": 1
                }
              ]
            },
            "unit": "none",
            "unitScale": true
          },
          "overrides": []
        },
        "gridPos": {
          "h": 3,
          "w": 5,
          "x": 15,
          "y": 0
        },
        "id": 18,
        "links": [],
        "maxDataPoints": 100,
        "options": {
          "colorMode": "value",
          "graphMode": "area",
          "justifyMode": "auto",
          "orientation": "horizontal",
          "reduceOptions": {
            "calcs": [
              "lastNotNull"
            ],
            "fields": "",
            "values": false
          },
          "showPercentChange": false,
          "text": {},
          "textMode": "auto",
          "wideLayout": true
        },
        "pluginVersion": "10.3.3",
        "targets": [
          {
            "datasource": {
              "type": "prometheus",
              "uid": "${ds}"
            },
            "exemplar": true,
            "expr": "sum(kube_pod_container_status_waiting{namespace=~\"$namespace\"})",
            "format": "time_series",
            "interval": "",
            "intervalFactor": 1,
            "legendFormat": "",
            "refId": "A"
          }
        ],
        "title": "Containers Waiting",
        "type": "stat"
      },
      {
        "datasource": {
          "uid": "${ds}"
        },
        "fieldConfig": {
          "defaults": {
            "color": {
              "mode": "thresholds"
            },
            "mappings": [],
            "min": 0,
            "thresholds": {
              "mode": "absolute",
              "steps": [
                {
                  "color": "green",
                  "value": null
                }
              ]
            },
            "unit": "bytes",
            "unitScale": true
          },
          "overrides": []
        },
        "gridPos": {
          "h": 4,
          "w": 10,
          "x": 10,
          "y": 3
        },
        "id": 14,
        "options": {
          "displayMode": "gradient",
          "maxVizHeight": 300,
          "minVizHeight": 16,
          "minVizWidth": 8,
          "namePlacement": "auto",
          "orientation": "horizontal",
          "reduceOptions": {
            "calcs": [
              "lastNotNull"
            ],
            "fields": "",
            "values": false
          },
          "showUnfilled": true,
          "sizing": "auto",
          "text": {},
          "valueMode": "color"
        },
        "pluginVersion": "10.3.3",
        "targets": [
          {
            "datasource": {
              "uid": "${ds}"
            },
            "exemplar": true,
            "expr": "sum(kube_pod_container_resource_requests{resource=\"memory\", node=~\"$node\", namespace=~\"$namespace\"})",
            "interval": "",
            "legendFormat": "Requets",
            "queryType": "randomWalk",
            "refId": "A"
          },
          {
            "datasource": {
              "uid": "${ds}"
            },
            "exemplar": true,
            "expr": "sum(kube_pod_container_resource_limits{resource=\"memory\", node=~\"$node\", namespace=~\"$namespace\"})",
            "hide": false,
            "interval": "",
            "legendFormat": "Limits",
            "refId": "B"
          },
          {
            "datasource": {
              "uid": "${ds}"
            },
            "exemplar": true,
            "expr": "sum(kube_node_status_allocatable{resource=\"memory\",node=~\"$node\"})",
            "hide": false,
            "interval": "",
            "legendFormat": "Allocatable",
            "refId": "C"
          }
        ],
        "title": "Memory Requested by Containers",
        "type": "bargauge"
      },
      {
        "datasource": {
          "uid": "${ds}"
        },
        "fieldConfig": {
          "defaults": {
            "color": {
              "mode": "thresholds"
            },
            "mappings": [
              {
                "options": {
                  "match": "null",
                  "result": {
                    "text": "N/A"
                  }
                },
                "type": "special"
              }
            ],
            "min": 0,
            "thresholds": {
              "mode": "absolute",
              "steps": [
                {
                  "color": "green",
                  "value": null
                }
              ]
            },
            "unit": "short",
            "unitScale": true
          },
          "overrides": []
        },
        "gridPos": {
          "h": 4,
          "w": 10,
          "x": 10,
          "y": 7
        },
        "id": 12,
        "links": [],
        "maxDataPoints": 100,
        "options": {
          "displayMode": "gradient",
          "maxVizHeight": 300,
          "minVizHeight": 16,
          "minVizWidth": 8,
          "namePlacement": "auto",
          "orientation": "horizontal",
          "reduceOptions": {
            "calcs": [
              "lastNotNull"
            ],
            "fields": "",
            "values": false
          },
          "showUnfilled": true,
          "sizing": "auto",
          "text": {},
          "valueMode": "color"
        },
        "pluginVersion": "10.3.3",
        "targets": [
          {
            "datasource": {
              "uid": "${ds}"
            },
            "exemplar": true,
            "expr": "sum(kube_pod_container_resource_requests{namespace=~\"$namespace\", node=~\"$node\",resource=\"cpu\"})",
            "format": "time_series",
            "interval": "",
            "intervalFactor": 1,
            "legendFormat": "Request",
            "refId": "A"
          },
          {
            "datasource": {
              "uid": "${ds}"
            },
            "exemplar": true,
            "expr": "sum(kube_pod_container_resource_limits{namespace=~\"$namespace\", node=~\"$node\",resource=\"cpu\"})",
            "hide": false,
            "interval": "",
            "legendFormat": "Limits",
            "refId": "B"
          },
          {
            "datasource": {
              "uid": "${ds}"
            },
            "exemplar": true,
            "expr": "sum(kube_node_status_allocatable{resource=\"cpu\",node=~\"$node\"})",
            "hide": false,
            "interval": "",
            "legendFormat": "Allocatable",
            "refId": "C"
          }
        ],
        "title": "CPU Cores Requested by Containers",
        "type": "bargauge"
      },
      {
        "collapsed": false,
        "datasource": {
          "type": "prometheus",
          "uid": "PC7A11E9A55DE2B14"
        },
        "gridPos": {
          "h": 1,
          "w": 24,
          "x": 0,
          "y": 11
        },
        "id": 8,
        "panels": [],
        "targets": [
          {
            "datasource": {
              "type": "prometheus",
              "uid": "PC7A11E9A55DE2B14"
            },
            "refId": "A"
          }
        ],
        "title": "Nodes",
        "type": "row"
      },
      {
        "datasource": {
          "type": "prometheus",
          "uid": "${ds}"
        },
        "fieldConfig": {
          "defaults": {
            "color": {
              "mode": "thresholds"
            },
            "custom": {
              "align": "auto",
              "cellOptions": {
                "type": "auto"
              },
              "inspect": false
            },
            "mappings": [],
            "thresholds": {
              "mode": "absolute",
              "steps": [
                {
                  "color": "green",
                  "value": null
                },
                {
                  "color": "red",
                  "value": 80
                }
              ]
            },
            "unitScale": true
          },
          "overrides": [
            {
              "matcher": {
                "id": "byName",
                "options": "CPU"
              },
              "properties": [
                {
                  "id": "unit",
                  "value": "percentunit"
                },
                {
                  "id": "custom.cellOptions",
                  "value": {
                    "mode": "gradient",
                    "type": "gauge"
                  }
                },
                {
                  "id": "decimals",
                  "value": 2
                },
                {
                  "id": "min",
                  "value": 0
                },
                {
                  "id": "max",
                  "value": 1
                },
                {
                  "id": "thresholds",
                  "value": {
                    "mode": "absolute",
                    "steps": [
                      {
                        "color": "green",
                        "value": null
                      },
                      {
                        "color": "orange",
                        "value": 90
                      },
                      {
                        "color": "red",
                        "value": 95
                      }
                    ]
                  }
                }
              ]
            },
            {
              "matcher": {
                "id": "byName",
                "options": "LA (5m avg %)"
              },
              "properties": [
                {
                  "id": "unit",
                  "value": "percent"
                },
                {
                  "id": "custom.cellOptions",
                  "value": {
                    "mode": "gradient",
                    "type": "gauge"
                  }
                },
                {
                  "id": "min",
                  "value": 0
                },
                {
                  "id": "thresholds",
                  "value": {
                    "mode": "absolute",
                    "steps": [
                      {
                        "color": "green",
                        "value": null
                      },
                      {
                        "color": "orange",
                        "value": 100
                      },
                      {
                        "color": "red",
                        "value": 120
                      }
                    ]
                  }
                },
                {
                  "id": "decimals",
                  "value": 2
                },
                {
                  "id": "max",
                  "value": 100
                }
              ]
            },
            {
              "matcher": {
                "id": "byName",
                "options": "LA (15m avg %)"
              },
              "properties": [
                {
                  "id": "unit",
                  "value": "percent"
                },
                {
                  "id": "decimals",
                  "value": 2
                },
                {
                  "id": "custom.cellOptions",
                  "value": {
                    "mode": "gradient",
                    "type": "gauge"
                  }
                },
                {
                  "id": "thresholds",
                  "value": {
                    "mode": "absolute",
                    "steps": [
                      {
                        "color": "green",
                        "value": null
                      },
                      {
                        "color": "orange",
                        "value": 100
                      },
                      {
                        "color": "red",
                        "value": 120
                      }
                    ]
                  }
                },
                {
                  "id": "max",
                  "value": 100
                }
              ]
            },
            {
              "matcher": {
                "id": "byName",
                "options": "RAM used"
              },
              "properties": [
                {
                  "id": "unit",
                  "value": "percent"
                },
                {
                  "id": "decimals",
                  "value": 2
                },
                {
                  "id": "min",
                  "value": 0
                },
                {
                  "id": "max",
                  "value": 100
                },
                {
                  "id": "custom.cellOptions",
                  "value": {
                    "mode": "gradient",
                    "type": "gauge"
                  }
                },
                {
                  "id": "thresholds",
                  "value": {
                    "mode": "absolute",
                    "steps": [
                      {
                        "color": "green",
                        "value": null
                      },
                      {
                        "color": "orange",
                        "value": 90
                      },
                      {
                        "color": "red",
                        "value": 98
                      }
                    ]
                  }
                }
              ]
            },
            {
              "matcher": {
                "id": "byName",
                "options": "/ used"
              },
              "properties": [
                {
                  "id": "unit",
                  "value": "percent"
                },
                {
                  "id": "decimals",
                  "value": 2
                },
                {
                  "id": "custom.cellOptions",
                  "value": {
                    "mode": "gradient",
                    "type": "gauge"
                  }
                },
                {
                  "id": "max",
                  "value": 100
                },
                {
                  "id": "min",
                  "value": 0
                },
                {
                  "id": "thresholds",
                  "value": {
                    "mode": "absolute",
                    "steps": [
                      {
                        "color": "green",
                        "value": null
                      },
                      {
                        "color": "orange",
                        "value": 90
                      },
                      {
                        "color": "red",
                        "value": 95
                      }
                    ]
                  }
                }
              ]
            },
            {
              "matcher": {
                "id": "byName",
                "options": "CPU#"
              },
              "properties": [
                {
                  "id": "custom.width",
                  "value": 65
                }
              ]
            },
            {
              "matcher": {
                "id": "byName",
                "options": "nodename"
              },
              "properties": [
                {
                  "id": "custom.width",
                  "value": 200
                },
                {
                  "id": "links",
                  "value": [
                    {
                      "title": "",
                      "url": "/d/art-node-exporter/?var-nodename=${__value.raw}"
                    }
                  ]
                }
              ]
            },
            {
              "matcher": {
                "id": "byName",
                "options": "/mnt/dc5_d33_npu_nfs_01"
              },
              "properties": [
                {
                  "id": "unit",
                  "value": "percent"
                },
                {
                  "id": "custom.cellOptions",
                  "value": {
                    "mode": "gradient",
                    "type": "gauge"
                  }
                },
                {
                  "id": "min",
                  "value": 0
                },
                {
                  "id": "max",
                  "value": 100
                },
                {
                  "id": "decimals",
                  "value": 2
                },
                {
                  "id": "thresholds",
                  "value": {
                    "mode": "absolute",
                    "steps": [
                      {
                        "color": "green",
                        "value": null
                      },
                      {
                        "color": "orange",
                        "value": 92
                      },
                      {
                        "color": "red",
                        "value": 95
                      }
                    ]
                  }
                }
              ]
            },
            {
              "matcher": {
                "id": "byName",
                "options": "RAM total"
              },
              "properties": [
                {
                  "id": "unit",
                  "value": "bytes"
                },
                {
                  "id": "custom.width",
                  "value": 87
                }
              ]
            }
          ]
        },
        "gridPos": {
          "h": 7,
          "w": 20,
          "x": 0,
          "y": 12
        },
        "id": 4,
        "options": {
          "cellHeight": "sm",
          "footer": {
            "countRows": false,
            "fields": "",
            "reducer": [
              "sum"
            ],
            "show": false
          },
          "showHeader": true,
          "sortBy": [
            {
              "desc": false,
              "displayName": "nodename"
            }
          ]
        },
        "pluginVersion": "10.3.3",
        "targets": [
          {
            "datasource": {
              "type": "prometheus",
              "uid": "PC7A11E9A55DE2B14"
            },
            "exemplar": false,
            "expr": "count by(instance)(node_cpu_seconds_total{job=\"$job\",mode=\"idle\"})",
            "format": "table",
            "hide": false,
            "instant": true,
            "interval": "",
            "legendFormat": "{{instance}}",
            "queryType": "randomWalk",
            "refId": "A"
          },
          {
            "datasource": {
              "type": "prometheus",
              "uid": "PC7A11E9A55DE2B14"
            },
            "exemplar": false,
            "expr": "node_uname_info{job=\"$job\"}",
            "format": "table",
            "hide": false,
            "instant": true,
            "interval": "",
            "legendFormat": "{{instance}}",
            "refId": "B"
          },
          {
            "datasource": {
              "type": "prometheus",
              "uid": "PC7A11E9A55DE2B14"
            },
            "exemplar": false,
            "expr": "1 - avg by(instance) (rate(node_cpu_seconds_total{mode=\"idle\",job=\"$job\"}[5m]))",
            "format": "table",
            "hide": false,
            "instant": true,
            "interval": "",
            "legendFormat": "",
            "refId": "C"
          },
          {
            "datasource": {
              "type": "prometheus",
              "uid": "PC7A11E9A55DE2B14"
            },
            "exemplar": false,
            "expr": "(sum by(instance)(node_load5{job=\"$job\"}) * 100) / count by(instance)(node_cpu_seconds_total{job=\"$job\",  mode=\"idle\"})",
            "format": "table",
            "hide": false,
            "instant": true,
            "interval": "",
            "legendFormat": "",
            "refId": "D"
          },
          {
            "datasource": {
              "type": "prometheus",
              "uid": "PC7A11E9A55DE2B14"
            },
            "exemplar": false,
            "expr": "(sum by(instance)(node_load15{job=\"$job\"}) * 100) / count by(instance)(node_cpu_seconds_total{job=\"$job\",  mode=\"idle\"})",
            "format": "table",
            "hide": false,
            "instant": true,
            "interval": "",
            "legendFormat": "",
            "refId": "E"
          },
          {
            "datasource": {
              "type": "prometheus",
              "uid": "PC7A11E9A55DE2B14"
            },
            "exemplar": false,
            "expr": "100 - (sum by(instance)(node_memory_MemAvailable_bytes{job=\"$job\"}) * 100) /\nsum by(instance)(node_memory_MemTotal_bytes{job=\"$job\"})",
            "format": "table",
            "hide": false,
            "instant": true,
            "interval": "",
            "legendFormat": "",
            "refId": "F"
          },
          {
            "datasource": {
              "type": "prometheus",
              "uid": "PC7A11E9A55DE2B14"
            },
            "exemplar": false,
            "expr": "100 - ((sum by(instance)(node_filesystem_avail_bytes{job=\"$job\",mountpoint=\"/\"}) * 100) \n/ sum by(instance)(node_filesystem_size_bytes{job=\"$job\", mountpoint=\"/\"}))",
            "format": "table",
            "hide": false,
            "instant": true,
            "interval": "",
            "legendFormat": "",
            "refId": "G"
          },
          {
            "datasource": {
              "type": "prometheus",
              "uid": "PC7A11E9A55DE2B14"
            },
            "exemplar": false,
            "expr": "100 - \n((sum by(instance)(node_filesystem_avail_bytes{job=\"$job\",mountpoint=\"/mnt/dc5_d33_npu_nfs_01\"}) * 100) \n/ sum by(instance)(node_filesystem_size_bytes{job=\"$job\",mountpoint=\"/mnt/dc5_d33_npu_nfs_01\"}))",
            "format": "table",
            "hide": false,
            "instant": true,
            "interval": "",
            "legendFormat": "",
            "refId": "H"
          },
          {
            "datasource": {
              "type": "prometheus",
              "uid": "PC7A11E9A55DE2B14"
            },
            "exemplar": false,
            "expr": "sum by(instance)(node_memory_MemTotal_bytes{job=\"$job\"})",
            "format": "table",
            "hide": false,
            "instant": true,
            "interval": "",
            "legendFormat": "",
            "refId": "I"
          }
        ],
        "transformations": [
          {
            "id": "seriesToColumns",
            "options": {
              "byField": "instance"
            }
          },
          {
            "id": "organize",
            "options": {
              "excludeByName": {
                "Time 1": true,
                "Time 2": true,
                "Time 3": true,
                "Time 4": true,
                "Time 5": true,
                "Time 6": true,
                "Time 7": true,
                "Time 8": true,
                "Time 9": true,
                "Value #B": true,
                "__name__": true,
                "domainname": true,
                "instance": true,
                "job": true,
                "machine": true,
                "monitor": true,
                "release": true,
                "sysname": true,
                "version": true
              },
              "indexByName": {
                "Time 1": 10,
                "Time 2": 11,
                "Time 3": 21,
                "Time 4": 22,
                "Time 5": 23,
                "Time 6": 24,
                "Time 7": 25,
                "Time 8": 26,
                "Time 9": 27,
                "Value #A": 1,
                "Value #B": 20,
                "Value #C": 2,
                "Value #D": 3,
                "Value #E": 4,
                "Value #F": 6,
                "Value #G": 7,
                "Value #H": 8,
                "Value #I": 5,
                "__name__": 12,
                "domainname": 13,
                "instance": 9,
                "job": 14,
                "machine": 15,
                "monitor": 16,
                "nodename": 0,
                "release": 17,
                "sysname": 18,
                "version": 19
              },
              "renameByName": {
                "Value #A": "CPU#",
                "Value #C": "CPU",
                "Value #D": "LA (5m avg %)",
                "Value #E": "LA (15m avg %)",
                "Value #F": "RAM used",
                "Value #G": "/ used",
                "Value #H": "/mnt/dc5_d33_npu_nfs_01",
                "Value #I": "RAM total",
                "instance": ""
              }
            }
          }
        ],
        "type": "table"
      },
      {
        "datasource": {
          "type": "prometheus",
          "uid": "${ds}"
        },
        "fieldConfig": {
          "defaults": {
            "color": {
              "mode": "thresholds"
            },
            "custom": {
              "align": "auto",
              "cellOptions": {
                "type": "auto"
              },
              "inspect": false
            },
            "mappings": [],
            "thresholds": {
              "mode": "absolute",
              "steps": [
                {
                  "color": "green",
                  "value": null
                },
                {
                  "color": "red",
                  "value": 80
                }
              ]
            },
            "unitScale": true
          },
          "overrides": [
            {
              "matcher": {
                "id": "byName",
                "options": "CPU"
              },
              "properties": [
                {
                  "id": "unit",
                  "value": "percentunit"
                },
                {
                  "id": "custom.cellOptions",
                  "value": {
                    "mode": "gradient",
                    "type": "gauge"
                  }
                },
                {
                  "id": "decimals",
                  "value": 2
                },
                {
                  "id": "min",
                  "value": 0
                },
                {
                  "id": "max",
                  "value": 1
                },
                {
                  "id": "thresholds",
                  "value": {
                    "mode": "absolute",
                    "steps": [
                      {
                        "color": "green",
                        "value": null
                      },
                      {
                        "color": "orange",
                        "value": 90
                      },
                      {
                        "color": "red",
                        "value": 95
                      }
                    ]
                  }
                }
              ]
            },
            {
              "matcher": {
                "id": "byName",
                "options": "LA (5m avg %)"
              },
              "properties": [
                {
                  "id": "unit",
                  "value": "percent"
                },
                {
                  "id": "custom.cellOptions",
                  "value": {
                    "mode": "gradient",
                    "type": "gauge"
                  }
                },
                {
                  "id": "min",
                  "value": 0
                },
                {
                  "id": "thresholds",
                  "value": {
                    "mode": "absolute",
                    "steps": [
                      {
                        "color": "green",
                        "value": null
                      },
                      {
                        "color": "orange",
                        "value": 100
                      },
                      {
                        "color": "red",
                        "value": 120
                      }
                    ]
                  }
                },
                {
                  "id": "decimals",
                  "value": 2
                },
                {
                  "id": "max",
                  "value": 100
                }
              ]
            },
            {
              "matcher": {
                "id": "byName",
                "options": "LA (15m avg %)"
              },
              "properties": [
                {
                  "id": "unit",
                  "value": "percent"
                },
                {
                  "id": "decimals",
                  "value": 2
                },
                {
                  "id": "custom.cellOptions",
                  "value": {
                    "mode": "gradient",
                    "type": "gauge"
                  }
                },
                {
                  "id": "thresholds",
                  "value": {
                    "mode": "absolute",
                    "steps": [
                      {
                        "color": "green",
                        "value": null
                      },
                      {
                        "color": "orange",
                        "value": 100
                      },
                      {
                        "color": "red",
                        "value": 120
                      }
                    ]
                  }
                },
                {
                  "id": "max",
                  "value": 100
                }
              ]
            },
            {
              "matcher": {
                "id": "byName",
                "options": "RAM used"
              },
              "properties": [
                {
                  "id": "unit",
                  "value": "percent"
                },
                {
                  "id": "decimals",
                  "value": 2
                },
                {
                  "id": "min",
                  "value": 0
                },
                {
                  "id": "max",
                  "value": 100
                },
                {
                  "id": "custom.cellOptions",
                  "value": {
                    "mode": "gradient",
                    "type": "gauge"
                  }
                },
                {
                  "id": "thresholds",
                  "value": {
                    "mode": "absolute",
                    "steps": [
                      {
                        "color": "green",
                        "value": null
                      },
                      {
                        "color": "orange",
                        "value": 90
                      },
                      {
                        "color": "red",
                        "value": 98
                      }
                    ]
                  }
                }
              ]
            },
            {
              "matcher": {
                "id": "byName",
                "options": "/ used"
              },
              "properties": [
                {
                  "id": "unit",
                  "value": "percent"
                },
                {
                  "id": "decimals",
                  "value": 2
                },
                {
                  "id": "custom.cellOptions",
                  "value": {
                    "mode": "gradient",
                    "type": "gauge"
                  }
                },
                {
                  "id": "max",
                  "value": 100
                },
                {
                  "id": "min",
                  "value": 0
                },
                {
                  "id": "thresholds",
                  "value": {
                    "mode": "absolute",
                    "steps": [
                      {
                        "color": "green",
                        "value": null
                      },
                      {
                        "color": "orange",
                        "value": 90
                      },
                      {
                        "color": "red",
                        "value": 95
                      }
                    ]
                  }
                }
              ]
            },
            {
              "matcher": {
                "id": "byName",
                "options": "CPU#"
              },
              "properties": [
                {
                  "id": "custom.width",
                  "value": 65
                }
              ]
            },
            {
              "matcher": {
                "id": "byName",
                "options": "nodename"
              },
              "properties": [
                {
                  "id": "custom.width",
                  "value": 200
                },
                {
                  "id": "links",
                  "value": [
                    {
                      "title": "",
                      "url": "/d/art-node-exporter/?var-nodename=${__value.raw}"
                    }
                  ]
                }
              ]
            },
            {
              "matcher": {
                "id": "byName",
                "options": "/mnt/dc5_d33_npu_nfs_01"
              },
              "properties": [
                {
                  "id": "unit",
                  "value": "percent"
                },
                {
                  "id": "custom.cellOptions",
                  "value": {
                    "mode": "gradient",
                    "type": "gauge"
                  }
                },
                {
                  "id": "min",
                  "value": 0
                },
                {
                  "id": "max",
                  "value": 100
                },
                {
                  "id": "decimals",
                  "value": 2
                },
                {
                  "id": "thresholds",
                  "value": {
                    "mode": "absolute",
                    "steps": [
                      {
                        "color": "green",
                        "value": null
                      },
                      {
                        "color": "orange",
                        "value": 92
                      },
                      {
                        "color": "red",
                        "value": 95
                      }
                    ]
                  }
                }
              ]
            },
            {
              "matcher": {
                "id": "byName",
                "options": "RAM total"
              },
              "properties": [
                {
                  "id": "unit",
                  "value": "bytes"
                },
                {
                  "id": "custom.width",
                  "value": 87
                }
              ]
            }
          ]
        },
        "gridPos": {
          "h": 6,
          "w": 20,
          "x": 0,
          "y": 19
        },
        "id": 19,
        "options": {
          "cellHeight": "sm",
          "footer": {
            "countRows": false,
            "fields": "",
            "reducer": [
              "sum"
            ],
            "show": false
          },
          "showHeader": true,
          "sortBy": [
            {
              "desc": false,
              "displayName": "nodename"
            }
          ]
        },
        "pluginVersion": "10.3.3",
        "targets": [
          {
            "datasource": {
              "type": "prometheus",
              "uid": "PC7A11E9A55DE2B14"
            },
            "editorMode": "code",
            "exemplar": false,
            "expr": "count by(instance)(node_cpu_seconds_total{job=\"vm-infrastr1\",mode=\"idle\"})",
            "format": "table",
            "hide": false,
            "instant": true,
            "interval": "",
            "legendFormat": "{{instance}}",
            "queryType": "randomWalk",
            "refId": "A"
          },
          {
            "datasource": {
              "type": "prometheus",
              "uid": "PC7A11E9A55DE2B14"
            },
            "editorMode": "code",
            "exemplar": false,
            "expr": "node_uname_info{job=\"vm-infrastr1\"}",
            "format": "table",
            "hide": false,
            "instant": true,
            "interval": "",
            "legendFormat": "{{instance}}",
            "refId": "B"
          },
          {
            "datasource": {
              "type": "prometheus",
              "uid": "PC7A11E9A55DE2B14"
            },
            "editorMode": "code",
            "exemplar": false,
            "expr": "1 - avg by(instance) (rate(node_cpu_seconds_total{mode=\"idle\",job=\"vm-infrastr1\"}[5m]))",
            "format": "table",
            "hide": false,
            "instant": true,
            "interval": "",
            "legendFormat": "",
            "refId": "C"
          },
          {
            "datasource": {
              "type": "prometheus",
              "uid": "PC7A11E9A55DE2B14"
            },
            "editorMode": "code",
            "exemplar": false,
            "expr": "(sum by(instance)(node_load5{job=\"vm-infrastr1\"}) * 100) / count by(instance)(node_cpu_seconds_total{job=\"vm-infrastr1\",  mode=\"idle\"})",
            "format": "table",
            "hide": false,
            "instant": true,
            "interval": "",
            "legendFormat": "",
            "refId": "D"
          },
          {
            "datasource": {
              "type": "prometheus",
              "uid": "PC7A11E9A55DE2B14"
            },
            "editorMode": "code",
            "exemplar": false,
            "expr": "(sum by(instance)(node_load15{job=\"vm-infrastr1\"}) * 100) / count by(instance)(node_cpu_seconds_total{job=\"vm-infrastr1\",  mode=\"idle\"})",
            "format": "table",
            "hide": false,
            "instant": true,
            "interval": "",
            "legendFormat": "",
            "refId": "E"
          },
          {
            "datasource": {
              "type": "prometheus",
              "uid": "PC7A11E9A55DE2B14"
            },
            "editorMode": "code",
            "exemplar": false,
            "expr": "100 - (sum by(instance)(node_memory_MemAvailable_bytes{job=\"vm-infrastr1\"}) * 100) /\nsum by(instance)(node_memory_MemTotal_bytes{job=\"vm-infrastr1\"})",
            "format": "table",
            "hide": false,
            "instant": true,
            "interval": "",
            "legendFormat": "",
            "refId": "F"
          },
          {
            "datasource": {
              "type": "prometheus",
              "uid": "PC7A11E9A55DE2B14"
            },
            "editorMode": "code",
            "exemplar": false,
            "expr": "100 - ((sum by(instance)(node_filesystem_avail_bytes{job=\"vm-infrastr1\",mountpoint=\"/\"}) * 100) \n/ sum by(instance)(node_filesystem_size_bytes{job=\"vm-infrastr1\", mountpoint=\"/\"}))",
            "format": "table",
            "hide": false,
            "instant": true,
            "interval": "",
            "legendFormat": "",
            "refId": "G"
          },
          {
            "datasource": {
              "type": "prometheus",
              "uid": "PC7A11E9A55DE2B14"
            },
            "editorMode": "code",
            "exemplar": false,
            "expr": "100 - \n((sum by(instance)(node_filesystem_avail_bytes{job=\"vm-infrastr1\",mountpoint=\"/mnt/dc5_d33_npu_nfs_01\"}) * 100) \n/ sum by(instance)(node_filesystem_size_bytes{job=\"vm-infrastr1\",mountpoint=\"/mnt/dc5_d33_npu_nfs_01\"}))",
            "format": "table",
            "hide": false,
            "instant": true,
            "interval": "",
            "legendFormat": "",
            "refId": "H"
          },
          {
            "datasource": {
              "type": "prometheus",
              "uid": "PC7A11E9A55DE2B14"
            },
            "editorMode": "code",
            "exemplar": false,
            "expr": "sum by(instance)(node_memory_MemTotal_bytes{job=\"vm-infrastr1\"})",
            "format": "table",
            "hide": false,
            "instant": true,
            "interval": "",
            "legendFormat": "",
            "refId": "I"
          }
        ],
        "transformations": [
          {
            "id": "seriesToColumns",
            "options": {
              "byField": "instance"
            }
          },
          {
            "id": "organize",
            "options": {
              "excludeByName": {
                "Time 1": true,
                "Time 2": true,
                "Time 3": true,
                "Time 4": true,
                "Time 5": true,
                "Time 6": true,
                "Time 7": true,
                "Time 8": true,
                "Time 9": true,
                "Value #B": true,
                "__name__": true,
                "domainname": true,
                "instance": true,
                "job": true,
                "machine": true,
                "monitor": true,
                "release": true,
                "sysname": true,
                "version": true
              },
              "includeByName": {},
              "indexByName": {
                "Time 1": 10,
                "Time 2": 11,
                "Time 3": 21,
                "Time 4": 22,
                "Time 5": 23,
                "Time 6": 24,
                "Time 7": 25,
                "Time 8": 26,
                "Time 9": 27,
                "Value #A": 1,
                "Value #B": 20,
                "Value #C": 2,
                "Value #D": 3,
                "Value #E": 4,
                "Value #F": 6,
                "Value #G": 7,
                "Value #H": 8,
                "Value #I": 5,
                "__name__": 12,
                "domainname": 13,
                "instance": 9,
                "job": 14,
                "machine": 15,
                "monitor": 16,
                "nodename": 0,
                "release": 17,
                "sysname": 18,
                "version": 19
              },
              "renameByName": {
                "Value #A": "CPU#",
                "Value #C": "CPU",
                "Value #D": "LA (5m avg %)",
                "Value #E": "LA (15m avg %)",
                "Value #F": "RAM used",
                "Value #G": "/ used",
                "Value #H": "/mnt/dc5_d33_npu_nfs_01",
                "Value #I": "RAM total",
                "instance": "",
                "nodename": "VM"
              }
            }
          }
        ],
        "type": "table"
      }
    ],
    "refresh": "1m",
    "schemaVersion": 39,
    "tags": [
      "1-st line",
      "art-dashboards"
    ],
    "templating": {
      "list": [
        {
          "current": {
            "selected": false,
            "text": "Victoria",
            "value": "PC7A11E9A55DE2B14"
          },
          "hide": 0,
          "includeAll": false,
          "multi": false,
          "name": "ds",
          "options": [],
          "query": "prometheus",
          "queryValue": "",
          "refresh": 1,
          "regex": "",
          "skipUrlSync": false,
          "type": "datasource"
        },
        {
          "current": {
            "selected": false,
            "text": "node-exporter",
            "value": "node-exporter"
          },
          "datasource": {
            "uid": "${ds}"
          },
          "definition": "label_values(node_uname_info,job)",
          "hide": 2,
          "includeAll": false,
          "multi": false,
          "name": "job",
          "options": [],
          "query": {
            "query": "label_values(node_uname_info,job)",
            "refId": "StandardVariableQuery"
          },
          "refresh": 1,
          "regex": "",
          "skipUrlSync": false,
          "sort": 0,
          "type": "query"
        },
        {
          "current": {
            "selected": false,
            "text": "All",
            "value": "$__all"
          },
          "datasource": {
            "uid": "${ds}"
          },
          "definition": "kube_namespace_created",
          "hide": 2,
          "includeAll": true,
          "label": "Namespace",
          "multi": false,
          "name": "namespace",
          "options": [],
          "query": {
            "query": "kube_namespace_created",
            "refId": "StandardVariableQuery"
          },
          "refresh": 1,
          "regex": "/namespace=\"(?<text>[^\"]+)/g",
          "skipUrlSync": false,
          "sort": 1,
          "type": "query"
        },
        {
          "current": {
            "selected": false,
            "text": "All",
            "value": "$__all"
          },
          "datasource": {
            "uid": "${ds}"
          },
          "definition": "kube_node_info",
          "hide": 2,
          "includeAll": true,
          "multi": false,
          "name": "node",
          "options": [],
          "query": {
            "query": "kube_node_info",
            "refId": "StandardVariableQuery"
          },
          "refresh": 1,
          "regex": "/node=\"(?<text>[^\"]+)/",
          "skipUrlSync": false,
          "sort": 0,
          "type": "query"
        }
      ]
    },
    "time": {
      "from": "now-6h",
      "to": "now"
    },
    "timepicker": {},
    "timezone": "",
    "title": "Main dashboard with VM",
    "uid": "art-main2",
    "version": 5,
    "weekStart": ""
  }